%YAML 1.1
%TAG !u! tag:unity3d.com,2011:
--- !u!114 &11400000
MonoBehaviour:
  m_ObjectHideFlags: 0
  m_CorrespondingSourceObject: {fileID: 0}
  m_PrefabInstance: {fileID: 0}
  m_PrefabAsset: {fileID: 0}
  m_GameObject: {fileID: 0}
  m_Enabled: 1
  m_EditorHideFlags: 0
  m_Script: {fileID: 11500000, guid: 0cd1e1838d938154a92ae2db83c7bbbe, type: 3}
  m_Name: Player
  m_EditorClassIdentifier: 
  actorData:
    id: pl1
    speed: 5
    isActive: 1
    xRange: 5
    yRange: 5
