%YAML 1.1
%TAG !u! tag:unity3d.com,2011:
--- !u!114 &11400000
MonoBehaviour:
  m_ObjectHideFlags: 0
  m_CorrespondingSourceObject: {fileID: 0}
  m_PrefabInstance: {fileID: 0}
  m_PrefabAsset: {fileID: 0}
  m_GameObject: {fileID: 0}
  m_Enabled: 1
  m_EditorHideFlags: 0
  m_Script: {fileID: 11500000, guid: 468a46d0ae32c3544b7d98094e6448a9, type: 3}
  m_Name: AddressableAssetSettings
  m_EditorClassIdentifier: 
  m_DefaultGroup: 533cbdeaf97814e4ab21a986fd599a9f
  m_OptimizeCatalogSize: 0
  m_BuildRemoteCatalog: 1
  m_BundleLocalCatalog: 0
  m_DisableCatalogUpdateOnStart: 0
  m_IgnoreUnsupportedFilesInBuild: 0
  m_UniqueBundleIds: 0
  m_maxConcurrentWebRequests: 500
  m_ContiguousBundles: 0
  m_RemoteCatalogBuildPath:
    m_Id: e2a488930c14334438d86e89d312c63a
  m_RemoteCatalogLoadPath:
    m_Id: 4912d2f40237a80438518a4733f078e6
  m_overridePlayerVersion: 
  m_GroupAssets:
  - {fileID: 11400000, guid: 87dca39a9c2e4a54b833d8578afe1d0b, type: 2}
  - {fileID: 11400000, guid: 3c9b7ae94ce864e449f4d0b854940c31, type: 2}
  - {fileID: 11400000, guid: b4d32a926b7a76444a8c537255f5519c, type: 2}
  m_BuildSettings:
    m_CompileScriptsInVirtualMode: 0
    m_CleanupStreamingAssetsAfterBuilds: 1
    m_LogResourceManagerExceptions: 1
    m_BundleBuildPath: Temp/com.unity.addressables/AssetBundles
  m_ProfileSettings:
    m_Profiles:
    - m_InheritedParent: 
      m_Id: 5118b6d9d42d2ce45bdc8221d9ba263d
      m_ProfileName: Default
      m_Values:
      - m_Id: a633ddd808e0fd54e9db367981921a15
        m_Value: '[UnityEditor.EditorUserBuildSettings.activeBuildTarget]'
      - m_Id: f80150cabb3865b4eb07738051bc6164
        m_Value: '[UnityEngine.AddressableAssets.Addressables.BuildPath]/[BuildTarget]'
      - m_Id: 1dfc99103aee1304f89fbebc1ad1d4d3
        m_Value: '{UnityEngine.AddressableAssets.Addressables.RuntimePath}/[BuildTarget]'
      - m_Id: e2a488930c14334438d86e89d312c63a
        m_Value: ServerData/[BuildTarget]
      - m_Id: 4912d2f40237a80438518a4733f078e6
        m_Value: http://localhost/[BuildTarget]
    - m_InheritedParent: 
      m_Id: 9449ae7404e215a4e928c71fce35c862
      m_ProfileName: Remote Build
      m_Values:
      - m_Id: a633ddd808e0fd54e9db367981921a15
        m_Value: '[UnityEditor.EditorUserBuildSettings.activeBuildTarget]'
      - m_Id: f80150cabb3865b4eb07738051bc6164
        m_Value: '[UnityEngine.AddressableAssets.Addressables.BuildPath]/[BuildTarget]'
      - m_Id: 1dfc99103aee1304f89fbebc1ad1d4d3
        m_Value: '{UnityEngine.AddressableAssets.Addressables.RuntimePath}/[BuildTarget]'
      - m_Id: e2a488930c14334438d86e89d312c63a
        m_Value: ServerData/[BuildTarget]
      - m_Id: 4912d2f40237a80438518a4733f078e6
        m_Value: https://naufal-pratama.my.id/demo/rg-platformer/data-content/[BuildTarget]
    m_ProfileEntryNames:
    - m_Id: a633ddd808e0fd54e9db367981921a15
      m_Name: BuildTarget
      m_InlineUsage: 0
    - m_Id: f80150cabb3865b4eb07738051bc6164
      m_Name: LocalBuildPath
      m_InlineUsage: 0
    - m_Id: 1dfc99103aee1304f89fbebc1ad1d4d3
      m_Name: LocalLoadPath
      m_InlineUsage: 0
    - m_Id: e2a488930c14334438d86e89d312c63a
      m_Name: RemoteBuildPath
      m_InlineUsage: 0
    - m_Id: 4912d2f40237a80438518a4733f078e6
      m_Name: RemoteLoadPath
      m_InlineUsage: 0
    m_ProfileVersion: 1
  m_LabelTable:
    m_LabelNames:
    - Basic Load
    - Default Load
  m_SchemaTemplates: []
  m_GroupTemplateObjects:
  - {fileID: 11400000, guid: 811ac60a505cc844c92f9211eee0ad2b, type: 2}
  m_InitializationObjects: []
  m_CertificateHandlerType:
    m_AssemblyName: 
    m_ClassName: 
  m_ActivePlayerDataBuilderIndex: 3
  m_DataBuilders:
  - {fileID: 11400000, guid: 964e46b991361a441995ba7c4ae2a669, type: 2}
  - {fileID: 11400000, guid: 2191dc0d10025304b913f2595588e964, type: 2}
  - {fileID: 11400000, guid: 922dcde1c916f8a4d93df780d1f705ab, type: 2}
  - {fileID: 11400000, guid: 59b97add31cdaa342b83cb2b7f978d46, type: 2}
  m_ActiveProfileId: 9449ae7404e215a4e928c71fce35c862
  m_HostingServicesManager:
    m_HostingServiceInfos: []
    m_Settings: {fileID: 11400000}
    m_NextInstanceId: 0
    m_RegisteredServiceTypeRefs: []
